DM Bayes
…
Il ny a pas de donnes manquantes. La variable commune doit tre retravaille pour tre transforme en variable de catgorie :

mutations$commune <- as.factor(mutations$commune)

mutations %>%
  group_by(ville, commune) %>%
  summarise(n = n()) %>%
  arrange(desc(n))

## # A tibble: 97 x 3
## # Groups:   ville [97]
##    ville         commune     n
##    <fct>         <fct>   <int>
##  1 GOUSSAINVILLE 95280      14
##  2 ARPAJON       91021      13
##  3 SARCELLES     95585      12
##  4 TAVERNY       95607      12
##  5 ARGENTEUIL    95018      11
##  6 MAGNANVILLE   78354      10
##  7 MASSY         91377      10
##  8 MONTGERON     91421      10
##  9 NANTERRE      92050      10
## 10 AUBERGENVILLE 78029       9
## #  with 87 more rows
…
